{
  "number": 0,
  "numberOfElements": 0,
  "size": 10,
  "totalElements": 20,
  "totalPages": 2,
  "content": [
    {
      "id": "1",
      "code": "MC000001",
      "userName": "van.na",
      "fullName": "Nguyen Anh Van",
      "gender": "Male",
      "age": 25,
      "department": "DEV",
      "active": true,
      "title": "QL"
    },
    {
      "id": "2",
      "code": "MC000002",
      "userName": "van.na1",
      "fullName": "Nguyen Anh Van",
      "gender": "Male",
      "age": 25,
      "department": "DEV",
      "active": true,
      "title": "NV"
    },
    {
      "id": "3",
      "code": "MC000003",
      "userName": "van.na2",
      "fullName": "Nguyen Anh Van",
      "gender": "Male",
      "age": 25,
      "department": "SALE",
      "active": true,
      "title": "NV"
    }
  ]
}
